…
2. Convert the following variables to factors: `period`, `continent`, `geo_region`, `country`, `scientific_name`, `common_name`, `taxonomic_code`, and `status`.

``` r
fisheries_fctr <- fisheries_clean %>% 
                  mutate(across(where(is.character), as.factor)) %>% 
                  mutate(period=as.factor(period))
fisheries_fctr
```

```
## # A tibble: 1,055,015 × 9
##    period continent geo_region    country     scientific_name common_name       
##    <fct>  <fct>     <fct>         <fct>       <fct>           <fct>             
##  1 1950   Asia      Southern Asia Afghanistan Osteichthyes    Freshwater fishes…
##  2 1951   Asia      Southern Asia Afghanistan Osteichthyes    Freshwater fishes…
##  3 1952   Asia      Southern Asia Afghanistan Osteichthyes    Freshwater fishes…
##  4 1953   Asia      Southern Asia Afghanistan Osteichthyes    Freshwater fishes…
##  5 1954   Asia      Southern Asia Afghanistan Osteichthyes    Freshwater fishes…
##  6 1955   Asia      Southern Asia Afghanistan Osteichthyes    Freshwater fishes…
##  7 1956   Asia      Southern Asia Afghanistan Osteichthyes    Freshwater fishes…
##  8 1957   Asia      Southern Asia Afghanistan Osteichthyes    Freshwater fishes…
##  9 1958   Asia      Southern Asia Afghanistan Osteichthyes    Freshwater fishes…
## 10 1959   Asia      Southern Asia Afghanistan Osteichthyes    Freshwater fishes…
## # ℹ 1,055,005 more rows
## # ℹ 3 more variables: taxonomic_code <fct>, catch <dbl>, status <fct>
```
…
``` r
#dont need to do #3, said in class
```

4. How many countries are represented in the data?

``` r
fisheries_fctr %>% 
 group_by(country) %>% 
  distinct(country)
```

```
## # A tibble: 249 × 1
## # Groups:   country [249]
##    country            
##    <fct>              
##  1 Afghanistan        
##  2 Albania            
##  3 Algeria            
##  4 American Samoa     
##  5 Andorra            
##  6 Angola             
##  7 Anguilla           
##  8 Antigua and Barbuda
##  9 Argentina          
## 10 Armenia            
## # ℹ 239 more rows
```

``` r
# As we can see from what the tibble information as well as the groups counter, 249 countries were represented in the data.
```

5. The variables `common_name` and `taxonomic_code` both refer to species. How many unique species are represented in the data based on each of these variables? Are the numbers the same or different?

``` r
fisheries_fctr %>% 
  group_by(common_name) %>% 
  distinct(common_name)
```

```
## # A tibble: 3,390 × 1
## # Groups:   common_name [3,390]
##    common_name            
##    <fct>                  
##  1 Freshwater fishes NEI  
##  2 Crucian carp           
##  3 Common carp            
##  4 Grass carp(=White amur)
##  5 Silver carp            
##  6 Bighead carp           
##  7 Wuchang bream          
##  8 Bleak                  
##  9 Orfe(=Ide)             
## 10 Common dace            
## # ℹ 3,380 more rows
```

``` r
#Their are 3,390 common names representing species in the data
```


``` r
fisheries_fctr %>% 
  group_by(taxonomic_code) %>% 
  distinct(taxonomic_code)
```

```
## # A tibble: 3,722 × 1
## # Groups:   taxonomic_code [3,722]
##    taxonomic_code 
##    <fct>          
##  1 1990XXXXXXXX106
##  2 140014109002   
##  3 140014113401   
##  4 140018102601   
##  5 140018104601   
##  6 140018104602   
##  7 140018105801   
##  8 140023102602   
##  9 140023114204   
## 10 140023114205   
## # ℹ 3,712 more rows
```
…
